{

  "toBuyList":
  [
    {
      "id":1,
      "name": "jeden lista",
      "createDate": null,
      "saved": true,
      "notes": "",
      "toBuyItem":
        [
          {
            "id": 1,
            "text": "ogórek",
            "quantity": "1",
            "checked": false,
            "photo": null
          },
          {
            "id": 2,
            "text": "pomidor",
            "quantity": "3",
            "checked": false,
            "photo": null
          }
        ]
    },
    {
      "id":2,
      "name": "druga lista",
      "createDate": null,
      "saved": true,
      "notes": "",
      "toBuyItem":
      [
        {
          "id": 1,
          "text": "opona",
          "quantity": "2",
          "checked": false,
          "photo": null
        },
        {
          "id": 2,
          "text": "rower",
          "quantity": "3",
          "checked": false,
          "photo": null
        }
      ]
    }




  ]



}
